Rank,Country,Average % of 2018,Year
1,South korea,26.6,2018
2,Taiwan,20.1,2018
3,Uruguay,18,2018
4,Japan,16.5,2018
5,Sri lanka,14.6,2018
1,Lithuania,31.9,2017
2,Russia,31,2017
3,Guyana,29.2,2017
4,South Korea,26.9,2017
5,Belarus,26.2,2017
1,Qatar,55.9,2016
2,Myanmar,41.1,2016
3,Cyprus,31.9,2016
4,Finland,30.4,2016
5,Panama,26.9,2016
1,Lithuania,34.9,2015
2,Russia,32.1,2015
3,Guyana,29.1,2015
4,South Korea,28.3,2015
5,Belarus,26.3,2015